{
  "name": "Ticket",
  "fields": [
    {
      "fieldName": "title",
      "fieldType": "String",
      "fieldValidateRules": ["required"]
    },
    {
      "fieldName": "description",
      "fieldType": "String"
    },
    {
      "fieldName": "dueDate",
      "fieldType": "LocalDate"
    },
    {
      "fieldName": "date",
      "fieldType": "ZonedDateTime"
    },
    {
      "fieldName": "status",
      "fieldType": "Status",
      "fieldValues": "OPEN (Open),WAITING_FOR_RESPONSE (Waiting for Customer Response),CLOSED (Closed),DUPLICATE (Duplicate),IN_PROGRESS (In Progress),REOPENED (Reopened),CANNOT_REPRODUCE (Cannot Reproduce),SOLVED (Solved),WONT_IMPLEMENT (Won't Implement),VERIFIED (Verified)"
    },
    {
      "fieldName": "type",
      "fieldType": "Type",
      "fieldValues": "BUG (Bug),FEATURE (Feature)"
    },
    {
      "fieldName": "priority",
      "fieldType": "Priority",
      "fieldValues": "HIGHEST (Highest),HIGHER (Higher),HIGH (High),NORMAL (Normal),LOW (Low),LOWER (Lower),LOWERST (Lowest)"
    }
  ],
  "relationships": [
    {
      "relationshipType": "one-to-many",
      "otherEntityName": "attachment",
      "otherEntityRelationshipName": "ticket",
      "relationshipName": "attachment"
    },
    {
      "relationshipType": "many-to-one",
      "otherEntityName": "project",
      "otherEntityRelationshipName": "ticket",
      "relationshipName": "project",
      "otherEntityField": "name"
    },
    {
      "relationshipType": "many-to-one",
      "otherEntityName": "user",
      "otherEntityRelationshipName": "ticket",
      "relationshipName": "assignedTo",
      "otherEntityField": "login"
    },
    {
      "relationshipType": "many-to-one",
      "otherEntityName": "user",
      "otherEntityRelationshipName": "ticket",
      "relationshipName": "reportedBy",
      "otherEntityField": "login"
    },
    {
      "relationshipType": "many-to-many",
      "otherEntityName": "label",
      "otherEntityRelationshipName": "ticket",
      "relationshipName": "label",
      "otherEntityField": "label",
      "ownerSide": true
    }
  ],
  "entityTableName": "ticket",
  "dto": "no",
  "pagination": "pagination",
  "service": "no",
  "jpaMetamodelFiltering": false,
  "fluentMethods": true,
  "readOnly": false,
  "embedded": false,
  "applications": "*",
  "changelogDate": "20210607132155"
}
